{
    "feedData": [
    {
    "feed_id": "853",
    "feed": "Make people fall in love with your ideas",
    "user_id_fk": "1",
    "created": "1566456759"
    },
    {
    "feed_id": "850",
    "feed": "Technolgy blog www.9lessons.info",
    "user_id_fk": "1",
    "created": "1566283656"
    },
    {
    "feed_id": "840",
    "feed": "Node mock server",
    "user_id_fk": "1",
    "created": "1566137529"
    }
    ]
}